{
    "items": [
      {
        "external_urls": {
          "spotify": "https://open.spotify.com/artist/3TVXtAsR1Inumwj472S9r4"
        },
        "followers": {
          "href": null,
          "total": 70260570
        },
        "genres": [
          "canadian hip hop",
          "canadian pop",
          "hip hop",
          "rap",
          "toronto rap"
        ],
        "href": "https://api.spotify.com/v1/artists/3TVXtAsR1Inumwj472S9r4",
        "id": "3TVXtAsR1Inumwj472S9r4",
        "images": [
          {
            "height": 640,
            "url": "https://i.scdn.co/image/ab6761610000e5eb4293385d324db8558179afd9",
            "width": 640
          },
          {
            "height": 320,
            "url": "https://i.scdn.co/image/ab676161000051744293385d324db8558179afd9",
            "width": 320
          },
          {
            "height": 160,
            "url": "https://i.scdn.co/image/ab6761610000f1784293385d324db8558179afd9",
            "width": 160
          }
        ],
        "name": "Drake",
        "popularity": 97,
        "type": "artist",
        "uri": "spotify:artist:3TVXtAsR1Inumwj472S9r4"
      },
      {
        "external_urls": {
          "spotify": "https://open.spotify.com/artist/4fxd5Ee7UefO4CUXgwJ7IP"
        },
        "followers": {
          "href": null,
          "total": 2696839
        },
        "genres": [
          "pop",
          "r&b"
        ],
        "href": "https://api.spotify.com/v1/artists/4fxd5Ee7UefO4CUXgwJ7IP",
        "id": "4fxd5Ee7UefO4CUXgwJ7IP",
        "images": [
          {
            "height": 640,
            "url": "https://i.scdn.co/image/ab6761610000e5eb0219b6643b1ec449b0951bfe",
            "width": 640
          },
          {
            "height": 320,
            "url": "https://i.scdn.co/image/ab676161000051740219b6643b1ec449b0951bfe",
            "width": 320
          },
          {
            "height": 160,
            "url": "https://i.scdn.co/image/ab6761610000f1780219b6643b1ec449b0951bfe",
            "width": 160
          }
        ],
        "name": "Giveon",
        "popularity": 80,
        "type": "artist",
        "uri": "spotify:artist:4fxd5Ee7UefO4CUXgwJ7IP"
      },
      {
        "external_urls": {
          "spotify": "https://open.spotify.com/artist/1RyvyyTE3xzB2ZywiAwp0i"
        },
        "followers": {
          "href": null,
          "total": 12744747
        },
        "genres": [
          "atl hip hop",
          "rap",
          "southern hip hop",
          "trap"
        ],
        "href": "https://api.spotify.com/v1/artists/1RyvyyTE3xzB2ZywiAwp0i",
        "id": "1RyvyyTE3xzB2ZywiAwp0i",
        "images": [
          {
            "height": 640,
            "url": "https://i.scdn.co/image/ab6761610000e5eb24e41f491b129093a6fee383",
            "width": 640
          },
          {
            "height": 320,
            "url": "https://i.scdn.co/image/ab6761610000517424e41f491b129093a6fee383",
            "width": 320
          },
          {
            "height": 160,
            "url": "https://i.scdn.co/image/ab6761610000f17824e41f491b129093a6fee383",
            "width": 160
          }
        ],
        "name": "Future",
        "popularity": 90,
        "type": "artist",
        "uri": "spotify:artist:1RyvyyTE3xzB2ZywiAwp0i"
      },
      {
        "external_urls": {
          "spotify": "https://open.spotify.com/artist/0iEtIxbK0KxaSlF7G42ZOp"
        },
        "followers": {
          "href": null,
          "total": 3469982
        },
        "genres": [
          "rap"
        ],
        "href": "https://api.spotify.com/v1/artists/0iEtIxbK0KxaSlF7G42ZOp",
        "id": "0iEtIxbK0KxaSlF7G42ZOp",
        "images": [
          {
            "height": 640,
            "url": "https://i.scdn.co/image/ab6761610000e5ebdf9a1555f53a20087b8c5a5c",
            "width": 640
          },
          {
            "height": 320,
            "url": "https://i.scdn.co/image/ab67616100005174df9a1555f53a20087b8c5a5c",
            "width": 320
          },
          {
            "height": 160,
            "url": "https://i.scdn.co/image/ab6761610000f178df9a1555f53a20087b8c5a5c",
            "width": 160
          }
        ],
        "name": "Metro Boomin",
        "popularity": 92,
        "type": "artist",
        "uri": "spotify:artist:0iEtIxbK0KxaSlF7G42ZOp"
      },
      {
        "external_urls": {
          "spotify": "https://open.spotify.com/artist/39XT9gMoNmMCOlvTTR273m"
        },
        "followers": {
          "href": null,
          "total": 176494
        },
        "genres": [
          "uk drill",
          "uk hip hop"
        ],
        "href": "https://api.spotify.com/v1/artists/39XT9gMoNmMCOlvTTR273m",
        "id": "39XT9gMoNmMCOlvTTR273m",
        "images": [
          {
            "height": 640,
            "url": "https://i.scdn.co/image/ab6761610000e5eb7994fcde1acc0cc39b5c3a5a",
            "width": 640
          },
          {
            "height": 320,
            "url": "https://i.scdn.co/image/ab676161000051747994fcde1acc0cc39b5c3a5a",
            "width": 320
          },
          {
            "height": 160,
            "url": "https://i.scdn.co/image/ab6761610000f1787994fcde1acc0cc39b5c3a5a",
            "width": 160
          }
        ],
        "name": "K-Trap",
        "popularity": 64,
        "type": "artist",
        "uri": "spotify:artist:39XT9gMoNmMCOlvTTR273m"
      },
      {
        "external_urls": {
          "spotify": "https://open.spotify.com/artist/2YZyLoL8N0Wb9xBt1NhZWg"
        },
        "followers": {
          "href": null,
          "total": 22417769
        },
        "genres": [
          "conscious hip hop",
          "hip hop",
          "rap",
          "west coast rap"
        ],
        "href": "https://api.spotify.com/v1/artists/2YZyLoL8N0Wb9xBt1NhZWg",
        "id": "2YZyLoL8N0Wb9xBt1NhZWg",
        "images": [
          {
            "height": 640,
            "url": "https://i.scdn.co/image/ab6761610000e5eb437b9e2a82505b3d93ff1022",
            "width": 640
          },
          {
            "height": 320,
            "url": "https://i.scdn.co/image/ab67616100005174437b9e2a82505b3d93ff1022",
            "width": 320
          },
          {
            "height": 160,
            "url": "https://i.scdn.co/image/ab6761610000f178437b9e2a82505b3d93ff1022",
            "width": 160
          }
        ],
        "name": "Kendrick Lamar",
        "popularity": 89,
        "type": "artist",
        "uri": "spotify:artist:2YZyLoL8N0Wb9xBt1NhZWg"
      },
      {
        "external_urls": {
          "spotify": "https://open.spotify.com/artist/4E0mDf341TLViBbNefSrsK"
        },
        "followers": {
          "href": null,
          "total": 62829
        },
        "genres": [
          "grime",
          "uk hip hop"
        ],
        "href": "https://api.spotify.com/v1/artists/4E0mDf341TLViBbNefSrsK",
        "id": "4E0mDf341TLViBbNefSrsK",
        "images": [
          {
            "height": 640,
            "url": "https://i.scdn.co/image/ab6761610000e5ebfe0bb29fe4cdf0beab18f249",
            "width": 640
          },
          {
            "height": 320,
            "url": "https://i.scdn.co/image/ab67616100005174fe0bb29fe4cdf0beab18f249",
            "width": 320
          },
          {
            "height": 160,
            "url": "https://i.scdn.co/image/ab6761610000f178fe0bb29fe4cdf0beab18f249",
            "width": 160
          }
        ],
        "name": "Blade Brown",
        "popularity": 53,
        "type": "artist",
        "uri": "spotify:artist:4E0mDf341TLViBbNefSrsK"
      },
      {
        "external_urls": {
          "spotify": "https://open.spotify.com/artist/20sxb77xiYeusSH8cVdatc"
        },
        "followers": {
          "href": null,
          "total": 6784972
        },
        "genres": [
          "hip hop",
          "philly rap",
          "pop rap",
          "rap",
          "southern hip hop",
          "trap"
        ],
        "href": "https://api.spotify.com/v1/artists/20sxb77xiYeusSH8cVdatc",
        "id": "20sxb77xiYeusSH8cVdatc",
        "images": [
          {
            "height": 640,
            "url": "https://i.scdn.co/image/ab6761610000e5eb238b2a30c741d42a4c91b7b7",
            "width": 640
          },
          {
            "height": 320,
            "url": "https://i.scdn.co/image/ab67616100005174238b2a30c741d42a4c91b7b7",
            "width": 320
          },
          {
            "height": 160,
            "url": "https://i.scdn.co/image/ab6761610000f178238b2a30c741d42a4c91b7b7",
            "width": 160
          }
        ],
        "name": "Meek Mill",
        "popularity": 76,
        "type": "artist",
        "uri": "spotify:artist:20sxb77xiYeusSH8cVdatc"
      },
      {
        "external_urls": {
          "spotify": "https://open.spotify.com/artist/6UCQYrcJ6wab6gnQ89OJFh"
        },
        "followers": {
          "href": null,
          "total": 451310
        },
        "genres": [
          "uk hip hop"
        ],
        "href": "https://api.spotify.com/v1/artists/6UCQYrcJ6wab6gnQ89OJFh",
        "id": "6UCQYrcJ6wab6gnQ89OJFh",
        "images": [
          {
            "height": 640,
            "url": "https://i.scdn.co/image/ab6761610000e5eb4b6cc4b22c451609514515bf",
            "width": 640
          },
          {
            "height": 320,
            "url": "https://i.scdn.co/image/ab676161000051744b6cc4b22c451609514515bf",
            "width": 320
          },
          {
            "height": 160,
            "url": "https://i.scdn.co/image/ab6761610000f1784b6cc4b22c451609514515bf",
            "width": 160
          }
        ],
        "name": "Headie One",
        "popularity": 71,
        "type": "artist",
        "uri": "spotify:artist:6UCQYrcJ6wab6gnQ89OJFh"
      },
      {
        "external_urls": {
          "spotify": "https://open.spotify.com/artist/6U3ybJ9UHNKEdsH7ktGBZ7"
        },
        "followers": {
          "href": null,
          "total": 1093134
        },
        "genres": [
          "hip hop",
          "rap"
        ],
        "href": "https://api.spotify.com/v1/artists/6U3ybJ9UHNKEdsH7ktGBZ7",
        "id": "6U3ybJ9UHNKEdsH7ktGBZ7",
        "images": [
          {
            "height": 640,
            "url": "https://i.scdn.co/image/ab6761610000e5eb8f0270ec23a53f3c1fe91849",
            "width": 640
          },
          {
            "height": 320,
            "url": "https://i.scdn.co/image/ab676161000051748f0270ec23a53f3c1fe91849",
            "width": 320
          },
          {
            "height": 160,
            "url": "https://i.scdn.co/image/ab6761610000f1788f0270ec23a53f3c1fe91849",
            "width": 160
          }
        ],
        "name": "JID",
        "popularity": 79,
        "type": "artist",
        "uri": "spotify:artist:6U3ybJ9UHNKEdsH7ktGBZ7"
      },
      {
        "external_urls": {
          "spotify": "https://open.spotify.com/artist/1CoZyIx7UvdxT5c8UkMzHd"
        },
        "followers": {
          "href": null,
          "total": 2955439
        },
        "genres": [
          "pop",
          "r&b",
          "uk contemporary r&b"
        ],
        "href": "https://api.spotify.com/v1/artists/1CoZyIx7UvdxT5c8UkMzHd",
        "id": "1CoZyIx7UvdxT5c8UkMzHd",
        "images": [
          {
            "height": 640,
            "url": "https://i.scdn.co/image/ab6761610000e5eb8c4457530f8c49a699a31e6f",
            "width": 640
          },
          {
            "height": 320,
            "url": "https://i.scdn.co/image/ab676161000051748c4457530f8c49a699a31e6f",
            "width": 320
          },
          {
            "height": 160,
            "url": "https://i.scdn.co/image/ab6761610000f1788c4457530f8c49a699a31e6f",
            "width": 160
          }
        ],
        "name": "Jorja Smith",
        "popularity": 72,
        "type": "artist",
        "uri": "spotify:artist:1CoZyIx7UvdxT5c8UkMzHd"
      },
      {
        "external_urls": {
          "spotify": "https://open.spotify.com/artist/3nFkdlSjzX9mRTtwJOzDYB"
        },
        "followers": {
          "href": null,
          "total": 7860549
        },
        "genres": [
          "east coast hip hop",
          "hip hop",
          "rap"
        ],
        "href": "https://api.spotify.com/v1/artists/3nFkdlSjzX9mRTtwJOzDYB",
        "id": "3nFkdlSjzX9mRTtwJOzDYB",
        "images": [
          {
            "height": 640,
            "url": "https://i.scdn.co/image/ab6761610000e5ebc75afcd5a9027f60eaebb5e4",
            "width": 640
          },
          {
            "height": 320,
            "url": "https://i.scdn.co/image/ab67616100005174c75afcd5a9027f60eaebb5e4",
            "width": 320
          },
          {
            "height": 160,
            "url": "https://i.scdn.co/image/ab6761610000f178c75afcd5a9027f60eaebb5e4",
            "width": 160
          }
        ],
        "name": "JAY-Z",
        "popularity": 84,
        "type": "artist",
        "uri": "spotify:artist:3nFkdlSjzX9mRTtwJOzDYB"
      },
      {
        "external_urls": {
          "spotify": "https://open.spotify.com/artist/6eXZu6O7nAUA5z6vLV8NKI"
        },
        "followers": {
          "href": null,
          "total": 665837
        },
        "genres": [
          "alternative r&b",
          "escape room",
          "trap queen"
        ],
        "href": "https://api.spotify.com/v1/artists/6eXZu6O7nAUA5z6vLV8NKI",
        "id": "6eXZu6O7nAUA5z6vLV8NKI",
        "images": [
          {
            "height": 640,
            "url": "https://i.scdn.co/image/ab6761610000e5eba0acc52a7b516fecf884dde1",
            "width": 640
          },
          {
            "height": 320,
            "url": "https://i.scdn.co/image/ab67616100005174a0acc52a7b516fecf884dde1",
            "width": 320
          },
          {
            "height": 160,
            "url": "https://i.scdn.co/image/ab6761610000f178a0acc52a7b516fecf884dde1",
            "width": 160
          }
        ],
        "name": "Little Simz",
        "popularity": 68,
        "type": "artist",
        "uri": "spotify:artist:6eXZu6O7nAUA5z6vLV8NKI"
      },
      {
        "external_urls": {
          "spotify": "https://open.spotify.com/artist/6Ip8FS7vWT1uKkJSweANQK"
        },
        "followers": {
          "href": null,
          "total": 2754647
        },
        "genres": [
          "uk hip hop"
        ],
        "href": "https://api.spotify.com/v1/artists/6Ip8FS7vWT1uKkJSweANQK",
        "id": "6Ip8FS7vWT1uKkJSweANQK",
        "images": [
          {
            "height": 640,
            "url": "https://i.scdn.co/image/ab6761610000e5eb3d467ace27d3c94063db8cba",
            "width": 640
          },
          {
            "height": 320,
            "url": "https://i.scdn.co/image/ab676161000051743d467ace27d3c94063db8cba",
            "width": 320
          },
          {
            "height": 160,
            "url": "https://i.scdn.co/image/ab6761610000f1783d467ace27d3c94063db8cba",
            "width": 160
          }
        ],
        "name": "Dave",
        "popularity": 76,
        "type": "artist",
        "uri": "spotify:artist:6Ip8FS7vWT1uKkJSweANQK"
      },
      {
        "external_urls": {
          "spotify": "https://open.spotify.com/artist/3tlXnStJ1fFhdScmQeLpuG"
        },
        "followers": {
          "href": null,
          "total": 3109633
        },
        "genres": [
          "dmv rap",
          "hip hop",
          "pop",
          "r&b",
          "rap"
        ],
        "href": "https://api.spotify.com/v1/artists/3tlXnStJ1fFhdScmQeLpuG",
        "id": "3tlXnStJ1fFhdScmQeLpuG",
        "images": [
          {
            "height": 640,
            "url": "https://i.scdn.co/image/ab6761610000e5eb2749cce858c97642feda7a92",
            "width": 640
          },
          {
            "height": 320,
            "url": "https://i.scdn.co/image/ab676161000051742749cce858c97642feda7a92",
            "width": 320
          },
          {
            "height": 160,
            "url": "https://i.scdn.co/image/ab6761610000f1782749cce858c97642feda7a92",
            "width": 160
          }
        ],
        "name": "Brent Faiyaz",
        "popularity": 82,
        "type": "artist",
        "uri": "spotify:artist:3tlXnStJ1fFhdScmQeLpuG"
      },
      {
        "external_urls": {
          "spotify": "https://open.spotify.com/artist/2hlmm7s2ICUX0LVIhVFlZQ"
        },
        "followers": {
          "href": null,
          "total": 4826324
        },
        "genres": [
          "atl hip hop",
          "melodic rap",
          "rap",
          "trap"
        ],
        "href": "https://api.spotify.com/v1/artists/2hlmm7s2ICUX0LVIhVFlZQ",
        "id": "2hlmm7s2ICUX0LVIhVFlZQ",
        "images": [
          {
            "height": 640,
            "url": "https://i.scdn.co/image/ab6761610000e5eb803f228472451496cb2f5b88",
            "width": 640
          },
          {
            "height": 320,
            "url": "https://i.scdn.co/image/ab67616100005174803f228472451496cb2f5b88",
            "width": 320
          },
          {
            "height": 160,
            "url": "https://i.scdn.co/image/ab6761610000f178803f228472451496cb2f5b88",
            "width": 160
          }
        ],
        "name": "Gunna",
        "popularity": 85,
        "type": "artist",
        "uri": "spotify:artist:2hlmm7s2ICUX0LVIhVFlZQ"
      },
      {
        "external_urls": {
          "spotify": "https://open.spotify.com/artist/5K4W6rqBFWDnAN6FQUkS6x"
        },
        "followers": {
          "href": null,
          "total": 18988471
        },
        "genres": [
          "chicago rap",
          "rap"
        ],
        "href": "https://api.spotify.com/v1/artists/5K4W6rqBFWDnAN6FQUkS6x",
        "id": "5K4W6rqBFWDnAN6FQUkS6x",
        "images": [
          {
            "height": 640,
            "url": "https://i.scdn.co/image/ab6761610000e5eb867008a971fae0f4d913f63a",
            "width": 640
          },
          {
            "height": 320,
            "url": "https://i.scdn.co/image/ab67616100005174867008a971fae0f4d913f63a",
            "width": 320
          },
          {
            "height": 160,
            "url": "https://i.scdn.co/image/ab6761610000f178867008a971fae0f4d913f63a",
            "width": 160
          }
        ],
        "name": "Kanye West",
        "popularity": 91,
        "type": "artist",
        "uri": "spotify:artist:5K4W6rqBFWDnAN6FQUkS6x"
      },
      {
        "external_urls": {
          "spotify": "https://open.spotify.com/artist/3rbtPd0NcvhO2AzMfzx90z"
        },
        "followers": {
          "href": null,
          "total": 713890
        },
        "genres": [
          "uk hip hop"
        ],
        "href": "https://api.spotify.com/v1/artists/3rbtPd0NcvhO2AzMfzx90z",
        "id": "3rbtPd0NcvhO2AzMfzx90z",
        "images": [
          {
            "height": 640,
            "url": "https://i.scdn.co/image/ab6761610000e5eb09d507624c7ff3347f46c520",
            "width": 640
          },
          {
            "height": 320,
            "url": "https://i.scdn.co/image/ab6761610000517409d507624c7ff3347f46c520",
            "width": 320
          },
          {
            "height": 160,
            "url": "https://i.scdn.co/image/ab6761610000f17809d507624c7ff3347f46c520",
            "width": 160
          }
        ],
        "name": "Fredo",
        "popularity": 64,
        "type": "artist",
        "uri": "spotify:artist:3rbtPd0NcvhO2AzMfzx90z"
      },
      {
        "external_urls": {
          "spotify": "https://open.spotify.com/artist/1URnnhqYAYcrqrcwql10ft"
        },
        "followers": {
          "href": null,
          "total": 12380909
        },
        "genres": [
          "atl hip hop",
          "rap"
        ],
        "href": "https://api.spotify.com/v1/artists/1URnnhqYAYcrqrcwql10ft",
        "id": "1URnnhqYAYcrqrcwql10ft",
        "images": [
          {
            "height": 640,
            "url": "https://i.scdn.co/image/ab6761610000e5eb35ca7d2181258b51c0f2cf9e",
            "width": 640
          },
          {
            "height": 320,
            "url": "https://i.scdn.co/image/ab6761610000517435ca7d2181258b51c0f2cf9e",
            "width": 320
          },
          {
            "height": 160,
            "url": "https://i.scdn.co/image/ab6761610000f17835ca7d2181258b51c0f2cf9e",
            "width": 160
          }
        ],
        "name": "21 Savage",
        "popularity": 94,
        "type": "artist",
        "uri": "spotify:artist:1URnnhqYAYcrqrcwql10ft"
      },
      {
        "external_urls": {
          "spotify": "https://open.spotify.com/artist/50co4Is1HCEo8bhOyUWKpn"
        },
        "followers": {
          "href": null,
          "total": 7761788
        },
        "genres": [
          "atl hip hop",
          "atl trap",
          "gangster rap",
          "hip hop",
          "melodic rap",
          "pop rap",
          "rap",
          "trap"
        ],
        "href": "https://api.spotify.com/v1/artists/50co4Is1HCEo8bhOyUWKpn",
        "id": "50co4Is1HCEo8bhOyUWKpn",
        "images": [
          {
            "height": 640,
            "url": "https://i.scdn.co/image/ab6761610000e5eb547d2b41c9f2c97318aad0ed",
            "width": 640
          },
          {
            "height": 320,
            "url": "https://i.scdn.co/image/ab67616100005174547d2b41c9f2c97318aad0ed",
            "width": 320
          },
          {
            "height": 160,
            "url": "https://i.scdn.co/image/ab6761610000f178547d2b41c9f2c97318aad0ed",
            "width": 160
          }
        ],
        "name": "Young Thug",
        "popularity": 85,
        "type": "artist",
        "uri": "spotify:artist:50co4Is1HCEo8bhOyUWKpn"
      }
    ],
    "total": 50,
    "limit": 20,
    "offset": 0,
    "previous": null,
    "href": "https://api.spotify.com/v1/me/top/artists",
    "next": "https://api.spotify.com/v1/me/top/artists?limit=20&offset=20"
  }